<svg width="12" height="12" viewBox="0 0 12 12" fill="none" xmlns="http://www.w3.org/2000/svg">
<g clip-path="url(#clip0)">
<path d="M6.7033 6.00361L11.8472 0.859703C12.0457 0.667963 12.0512 0.351599 11.8595 0.153066C11.6678 -0.0454671 11.3514 -0.0509722 11.1529 0.140767C11.1487 0.144779 11.1446 0.148878 11.1406 0.153066L5.99663 5.29697L0.852723 0.153037C0.65419 -0.0387029 0.337826 -0.0331979 0.146086 0.165335C-0.0409683 0.359007 -0.0409683 0.666031 0.146086 0.859703L5.29 6.00361L0.146086 11.1475C-0.0490209 11.3427 -0.0490209 11.659 0.146086 11.8542C0.341222 12.0492 0.657587 12.0492 0.852723 11.8542L5.99663 6.71025L11.1405 11.8542C11.3391 12.0459 11.6554 12.0404 11.8472 11.8419C12.0342 11.6482 12.0342 11.3412 11.8472 11.1475L6.7033 6.00361Z" fill="#FC624D"/>
</g>
<defs>
<clipPath id="clip0">
<rect width="12" height="12" fill="white"/>
</clipPath>
</defs>
</svg>
