<svg width="11" height="12" viewBox="0 0 11 12" fill="none" xmlns="http://www.w3.org/2000/svg">
<path d="M9.21514 3.38465H1.43074C1.34652 3.37749 1.26307 3.40532 1.19997 3.46156C1.13793 3.52116 1.10919 3.60744 1.12306 3.69233L1.92302 10.6614C2.01684 11.4297 2.67202 12.0055 3.44605 11.9998H7.32286C8.11868 12.0111 8.78902 11.4078 8.86128 10.6152L9.5228 3.66156C9.52689 3.58698 9.49891 3.51418 9.44588 3.46156C9.38281 3.40532 9.29936 3.37749 9.21514 3.38465ZM8.24594 10.5845C8.19759 11.0529 7.79347 11.4031 7.32289 11.3844H3.44608C2.98395 11.4032 2.58671 11.0598 2.53839 10.5998L1.7692 4.00002H8.87669L8.24594 10.5845Z" fill="white"/>
<path d="M10.3382 1.38475H7.16903V0.892433C7.18611 0.416934 6.8145 0.0176417 6.339 0.000562787C6.32339 3.30717e-06 6.30775 -0.000143924 6.29215 0.000150539H4.35373C3.87799 -0.00865391 3.48524 0.369849 3.47643 0.845584C3.47614 0.86119 3.47629 0.876826 3.47684 0.892433V1.38472H0.307685C0.13775 1.38472 0 1.52247 0 1.6924C0 1.86234 0.13775 2.00009 0.307685 2.00009H10.3382C10.5081 2.00009 10.6459 1.86234 10.6459 1.6924C10.6459 1.52247 10.5081 1.38475 10.3382 1.38475ZM6.55366 0.892433V1.38472H4.09218V0.892433C4.07484 0.757598 4.1701 0.634248 4.30493 0.616904C4.3211 0.614813 4.33744 0.614371 4.3537 0.61552H6.29212C6.42772 0.60592 6.54545 0.70804 6.55505 0.84367C6.55622 0.859924 6.55575 0.876267 6.55366 0.892433Z" fill="white"/>
</svg>
