<svg width="20" height="20" viewBox="0 0 20 20" fill="none" xmlns="http://www.w3.org/2000/svg">
<circle cx="10" cy="10" r="10" fill="#FFDD2D"/>
<g clip-path="url(#clip0)">
<path d="M8.29425 11.0875C7.78549 11.0875 7.37305 11.5 7.37305 12.0087C7.37305 12.5175 7.78549 12.9299 8.29425 12.9299C8.80301 12.9299 9.21546 12.5175 9.21546 12.0087C9.21432 11.5004 8.80255 11.0887 8.29425 11.0875ZM8.29425 12.5159V12.518C8.01414 12.518 7.78707 12.2909 7.78707 12.0108C7.78707 11.7307 8.01414 11.5036 8.29425 11.5036C8.57437 11.5036 8.80144 11.7307 8.80144 12.0108C8.79916 12.2896 8.57307 12.5148 8.29425 12.5159Z" fill="black"/>
<path d="M11.7059 11.0875C11.1971 11.0875 10.7847 11.5 10.7847 12.0087C10.7847 12.5175 11.1971 12.9299 11.7059 12.9299C12.2146 12.9299 12.6271 12.5175 12.6271 12.0087C12.6259 11.5004 12.2142 11.0887 11.7059 11.0875ZM11.7059 12.5159V12.518C11.4258 12.518 11.1987 12.2909 11.1987 12.0108C11.1987 11.7307 11.4258 11.5036 11.7059 11.5036C11.986 11.5036 12.2131 11.7307 12.2131 12.0108C12.2108 12.2896 11.9847 12.5148 11.7059 12.5159Z" fill="black"/>
<path d="M14.1755 11.5658H14.1196V10.6446C14.1196 9.93665 13.7346 9.18106 12.656 9.18106H10.2071V8.32609C10.6274 8.21177 10.8755 7.77834 10.7611 7.35802C10.6468 6.93771 10.2134 6.68963 9.79305 6.80398C9.37274 6.91833 9.12466 7.35174 9.23901 7.77205C9.31242 8.04189 9.52321 8.25271 9.79305 8.32609V9.18106H7.34409C6.6361 9.18106 5.88051 9.5661 5.88051 10.6446V11.5658H5.82254C5.58293 11.567 5.38896 11.761 5.38782 12.0006V13.3089C5.38896 13.5485 5.58293 13.7425 5.82254 13.7436H5.88051V15.5653C5.88165 15.805 6.07562 15.9989 6.31524 16.0001H13.6849C13.9245 15.9989 14.1185 15.805 14.1196 15.5653V13.7436H14.1776C14.4172 13.7425 14.6112 13.5485 14.6123 13.3089V12.0026C14.6123 11.7614 14.4167 11.5658 14.1755 11.5658ZM9.62537 7.5705H9.62123C9.62123 7.36356 9.78902 7.1958 9.99595 7.19583C10.2029 7.19583 10.3706 7.36361 10.3706 7.57055C10.3706 7.77585 10.2054 7.94294 10.0001 7.94519C9.79313 7.94519 9.62537 7.77743 9.62537 7.5705ZM14.1983 13.3089C14.1983 13.3203 14.189 13.3296 14.1776 13.3296H13.9126C13.7983 13.3296 13.7056 13.4223 13.7056 13.5366V15.5653C13.7056 15.5768 13.6963 15.586 13.6849 15.586H6.31524C6.3038 15.586 6.29453 15.5768 6.29453 15.5653V13.5366C6.29453 13.4223 6.20184 13.3296 6.08752 13.3296H5.82461C5.81318 13.3296 5.80391 13.3203 5.80391 13.3089V12.0026C5.80391 11.9912 5.81318 11.9819 5.82461 11.9819H6.08752C6.20184 11.9819 6.29453 11.8893 6.29453 11.7749V10.6446C6.29453 9.69652 7.02943 9.59508 7.34409 9.59508H12.656C13.6042 9.59508 13.7056 10.33 13.7056 10.6446V11.7729C13.7056 11.8872 13.7983 11.9799 13.9126 11.9799H14.1776C14.189 11.9799 14.1983 11.9891 14.1983 12.0006V13.3089Z" fill="black"/>
<path d="M9.99998 12.9507C9.88566 12.9507 9.79297 13.0434 9.79297 13.1577V14.0913C9.79297 14.2056 9.88566 14.2983 9.99998 14.2983C10.1143 14.2983 10.207 14.2056 10.207 14.0913V13.1577C10.207 13.0434 10.1143 12.9507 9.99998 12.9507Z" fill="black"/>
<path d="M11.9832 4.8213C10.8878 3.72623 9.11219 3.72623 8.01683 4.8213C7.92999 4.89567 7.91987 5.02635 7.99424 5.11319C8.06861 5.20003 8.19928 5.21015 8.28613 5.13578C8.29423 5.12885 8.30178 5.12129 8.30872 5.11319V5.11526C9.24214 4.18119 10.756 4.18065 11.6901 5.11405C11.6905 5.11446 11.6909 5.11485 11.6913 5.11526C11.7725 5.19587 11.9036 5.1954 11.9842 5.11423C12.0648 5.03305 12.0644 4.90191 11.9832 4.8213Z" fill="black"/>
<path d="M11.3891 5.42785C10.6274 4.66907 9.3955 4.66907 8.63377 5.42785C8.54693 5.50222 8.53681 5.6329 8.61118 5.71974C8.68555 5.80658 8.81623 5.8167 8.90307 5.74233C8.91117 5.73539 8.91873 5.72784 8.92566 5.71974C9.52543 5.12036 10.4975 5.12036 11.0972 5.71974C11.1354 5.75873 11.1875 5.78106 11.2421 5.78184C11.3565 5.78251 11.4497 5.69037 11.4503 5.57604C11.4507 5.52044 11.4286 5.46703 11.3891 5.42785Z" fill="black"/>
<path d="M10.7989 6.0528C10.792 6.0447 10.7844 6.03714 10.7763 6.03021C10.3468 5.60337 9.65326 5.60337 9.22374 6.03021C9.1369 6.10458 9.12678 6.23526 9.20115 6.3221C9.27552 6.40894 9.40619 6.41906 9.49304 6.34469C9.50113 6.33775 9.50869 6.3302 9.51563 6.3221C9.78366 6.05578 10.2164 6.05578 10.4844 6.3221C10.5588 6.40894 10.6895 6.41906 10.7763 6.34469C10.8632 6.27032 10.8733 6.13964 10.7989 6.0528Z" fill="black"/>
</g>
<defs>
<clipPath id="clip0">
<rect width="12" height="12" fill="white" transform="translate(4 4)"/>
</clipPath>
</defs>
</svg>
