<svg width="11" height="11" viewBox="0 0 11 11" fill="none" xmlns="http://www.w3.org/2000/svg">
<path d="M10.4086 8.28272e-07H0.601547C0.428577 -0.000326355 0.270003 0.0963013 0.190934 0.250186C0.110774 0.406142 0.124843 0.593944 0.227251 0.736377L3.82014 5.79766C3.82134 5.7994 3.82265 5.80104 3.82385 5.80278C3.95439 5.97902 4.02496 6.19246 4.02539 6.41189V10.5383C4.02463 10.6606 4.07262 10.7779 4.15877 10.8646C4.24493 10.9513 4.36206 11 4.48421 11C4.54637 11 4.60778 10.9875 4.66514 10.9637L6.68407 10.1939C6.865 10.1387 6.98508 9.96802 6.98508 9.76244V6.41189C6.9854 6.19256 7.05608 5.97902 7.18651 5.80278C7.18771 5.80104 7.18902 5.7994 7.19022 5.79766L10.783 0.736159C10.8854 0.593835 10.8995 0.406142 10.8193 0.250186C10.7402 0.0963013 10.5817 -0.000326355 10.4086 8.28272e-07ZM6.73631 5.472C6.53564 5.74433 6.42712 6.07358 6.42647 6.41189V9.69461L4.58378 10.3972V6.41189C4.58313 6.07358 4.47461 5.74433 4.27383 5.472L0.78575 0.558391H10.2245L6.73631 5.472Z" fill="white"/>
</svg>
