<svg width="368" height="368" viewBox="0 0 368 368" fill="none" xmlns="http://www.w3.org/2000/svg">
<path d="M248 112C234.768 112 224 122.768 224 136C224 149.232 234.768 160 248 160C261.232 160 272 149.232 272 136C272 122.768 261.232 112 248 112ZM248 144C243.584 144 240 140.408 240 136C240 131.592 243.584 128 248 128C252.416 128 256 131.592 256 136C256 140.408 252.416 144 248 144Z" fill="#427092"/>
<path d="M120 160C133.232 160 144 149.232 144 136C144 122.768 133.232 112 120 112C106.768 112 96 122.768 96 136C96 149.232 106.768 160 120 160ZM120 128C124.416 128 128 131.592 128 136C128 140.408 124.416 144 120 144C115.584 144 112 140.408 112 136C112 131.592 115.584 128 120 128Z" fill="#427092"/>
<path d="M184 0C82.536 0 0 82.544 0 184C0 285.456 82.536 368 184 368C285.464 368 368 285.456 368 184C368 82.544 285.464 0 184 0ZM184 352C91.368 352 16 276.64 16 184C16 91.36 91.368 16 184 16C276.632 16 352 91.36 352 184C352 276.64 276.632 352 184 352Z" fill="#427092"/>
<path d="M264 208H104C99.576 208 96 211.584 96 216C96 264.52 135.48 304 184 304C232.52 304 272 264.52 272 216C272 211.584 268.424 208 264 208ZM184 288C147 288 116.44 259.952 112.448 224H255.552C251.56 259.952 221 288 184 288Z" fill="#427092"/>
</svg>
