<svg width="195" height="195" viewBox="0 0 195 195" fill="none" xmlns="http://www.w3.org/2000/svg">
<g clip-path="url(#clip0)">
<path d="M185.818 2.161H128.778C123.807 2.161 119.778 6.19 119.778 11.161C119.778 16.132 123.807 20.161 128.778 20.161H164.09L77.7901 106.461C74.2751 109.976 74.2751 115.674 77.7901 119.189C79.5481 120.946 81.8511 121.825 84.1541 121.825C86.4571 121.825 88.7601 120.946 90.5181 119.189L176.818 32.889V68.202C176.818 73.173 180.847 77.202 185.818 77.202C190.789 77.202 194.818 73.173 194.818 68.202V11.162C194.818 6.18999 190.789 2.161 185.818 2.161Z" fill="#427092"/>
<path d="M149 77.201C144.029 77.201 140 81.23 140 86.201V174.657H18V52.657H111.778C116.749 52.657 120.778 48.628 120.778 43.657C120.778 38.686 116.749 34.657 111.778 34.657H9C4.029 34.657 0 38.686 0 43.657V183.657C0 188.628 4.029 192.657 9 192.657H149C153.971 192.657 158 188.628 158 183.657V86.201C158 81.23 153.971 77.201 149 77.201Z" fill="#427092"/>
</g>
<defs>
<clipPath id="clip0">
<rect width="194.818" height="194.818" fill="white"/>
</clipPath>
</defs>
</svg>
