<svg width="512" height="512" viewBox="0 0 512 512" fill="none" xmlns="http://www.w3.org/2000/svg">
<path d="M187.312 171.312L240 118.624V352C240 360.832 247.168 368 256 368C264.832 368 272 360.832 272 352V118.624L324.688 171.312C327.808 174.44 331.904 176 336 176C340.096 176 344.192 174.44 347.312 171.312C353.56 165.064 353.56 154.936 347.312 148.688L267.312 68.688C261.072 62.44 250.928 62.44 244.688 68.688L164.688 148.688C158.44 154.936 158.44 165.064 164.688 171.312C170.928 177.56 181.072 177.56 187.312 171.312Z" fill="#427092"/>
<path d="M400 320C391.168 320 384 327.168 384 336V400C384 408.824 376.824 416 368 416H144C135.176 416 128 408.824 128 400V336C128 327.168 120.832 320 112 320C103.168 320 96 327.168 96 336V400C96 426.472 117.528 448 144 448H368C394.472 448 416 426.472 416 400V336C416 327.168 408.832 320 400 320Z" fill="#427092"/>
</svg>
